^C:\USERS\НИКИТА\DESKTOP\VISUALSTUDIO\HELLOWORLD_14M\DEBUG\MAIN.OBJ
C:\USERS\Никита\DESKTOP\VISUALSTUDIO\HELLOWORLD_14M\DEBUG\HELLOWORLD_14M.EXE
C:\USERS\Никита\DESKTOP\VISUALSTUDIO\HELLOWORLD_14M\DEBUG\HELLOWORLD_14M.ILK
C:\USERS\НИКИТА\DESKTOP\VISUALSTUDIO\HELLOWORLD_14M\DEBUG\HELLOWORLD_14M.PDB
